{
	"schemaVersion": "0.4.2",
	"appId": "",
	"vendorDetail": {
		"name": "vendor",
		"url": "www.vendor.com"
	},
	"licenses": {},
	"containerAccess": "private|public",
	"displayName": "",
	"containerName": "",
	"typeDetail": "docker|delete|config|cert",
	"imageVersion": "",
	"imageUri": "vendor/image",
	"registryType": "private|public",
	"credentials": {
		"username": "",
		"password": ""
	},
	"category": "Applications|OS|OS+Applications",
	"processorArchitecture": "Linux-X86|Linux-X64|Linux-ARM32V7|Linux-ARM64V8",
	"appShortDescription": "",
	"appDescription": "",
	"containerCreateOptions": {
        "HostConfig": {
            "PortBindings": {
                "<port>/tcp": [
					{
                    	"HostPort": "<port>"
					}
				],
				"<port>/udp": [
					{
						"HostPort": "<port>"
					}
				]
            },
            "Binds": {
                "<path_on_host>": {
                    "bind": "<path_in_container>",
                    "mode": "rw|ro"
                }
			},
			"Devices": [
				"<path_on_host>:<path_in_container>:<cgroup_permissions>"
			],
            "NetworkMode": "host|bridge",
            "Privileged": false,
            "RestartPolicy": "always|on-failure|unless-stopped|no"
        }
	},
	"environmentVariables": [
		"VARIABLE1=xxxxx", 
		"VARIABLE2=xxxxx"
	]
}